^C:\USERS\WINCUCK\DOCUMENTS\MALONALA\MALONALA\MALONALA\WINDOW.CPP
/c /IC:\USERS\WINCUCK\DOCUMENTS\MALONALA\MALONALA\MALONALA\INCLUDE /Zi /nologo /W3 /WX- /diagnostics:classic /sdl /O2 /Oi /Oy- /GL /D _MBCS /Gm- /EHsc /MD /GS /Gy /fp:precise /Zc:wchar_t /Zc:forScope /Zc:inline /Fo"RELEASE\\" /Fd"RELEASE\VC141.PDB" /Gd /TP /analyze- /FC C:\USERS\WINCUCK\DOCUMENTS\MALONALA\MALONALA\MALONALA\WINDOW.CPP
^C:\USERS\WINCUCK\DOCUMENTS\MALONALA\MALONALA\MALONALA\WORLD.CPP
/c /IC:\USERS\WINCUCK\DOCUMENTS\MALONALA\MALONALA\MALONALA\INCLUDE /Zi /nologo /W3 /WX- /diagnostics:classic /sdl /O2 /Oi /Oy- /GL /D _MBCS /Gm- /EHsc /MD /GS /Gy /fp:precise /Zc:wchar_t /Zc:forScope /Zc:inline /Fo"RELEASE\\" /Fd"RELEASE\VC141.PDB" /Gd /TP /analyze- /FC C:\USERS\WINCUCK\DOCUMENTS\MALONALA\MALONALA\MALONALA\WORLD.CPP
^C:\USERS\WINCUCK\DOCUMENTS\MALONALA\MALONALA\MALONALA\MAIN.CPP
/c /IC:\USERS\WINCUCK\DOCUMENTS\MALONALA\MALONALA\MALONALA\INCLUDE /Zi /nologo /W3 /WX- /diagnostics:classic /sdl /O2 /Oi /Oy- /GL /D _MBCS /Gm- /EHsc /MD /GS /Gy /fp:precise /Zc:wchar_t /Zc:forScope /Zc:inline /Fo"RELEASE\\" /Fd"RELEASE\VC141.PDB" /Gd /TP /analyze- /FC C:\USERS\WINCUCK\DOCUMENTS\MALONALA\MALONALA\MALONALA\MAIN.CPP
