^C:\Users\Wincuck\Documents\Malonala\malonala\malonala\malonala.vcxproj
C:\Users\Wincuck\Documents\Malonala\malonala\Release\malonala.ipdb
C:\Users\Wincuck\Documents\Malonala\malonala\Release\malonala.iobj
^C:\Users\wincuck\Documents\Malonala\malonala\malonala\malonala.vcxproj
C:\Users\wincuck\Documents\Malonala\malonala\Release\malonala.ipdb
C:\Users\wincuck\Documents\Malonala\malonala\Release\malonala.iobj
^C:\Users\wincuck\Documents\Malonala\malonala\malonala\malonala.vcxproj
C:\Users\wincuck\Documents\Malonala\malonala\Release\malonala.ipdb
C:\Users\wincuck\Documents\Malonala\malonala\Release\malonala.iobj
^C:\Users\wincuck\Documents\Malonala\malonala\malonala\malonala.vcxproj
C:\Users\wincuck\Documents\Malonala\malonala\Release\malonala.ipdb
C:\Users\wincuck\Documents\Malonala\malonala\Release\malonala.iobj
